{
  "$schema": "https://docs.renovatebot.com/renovate-schema.json",
  "extends": [
    ":dependencyDashboard",
    ":disableRateLimiting",
    ":rebaseStalePrs",
    ":skipStatusChecks"
  ],
  "labels": [
    "renovate"
  ],
  "lockFileMaintenance": {
    "enabled": false
  },
  "separateMajorMinor": false,
  "recreateWhen": "always",
  "enabledManagers": [
    "custom.regex"
  ],
  "ignorePaths": [
    "**custom/**",
    "**/buildroot/**",
    "**/beebem/**",
    "**/libretro-retrodream/**"
  ],
  "stopUpdatingLabel": "Testing::Beta",
  "prBodyNotes": [
    "{{#if newDigest}}> 🗒**Changelog**<br/> [Compare revision {{{currentDigest}}} to {{{newDigest}}}]({{{packageName}}}/compare/{{{currentDigest}}}...{{{newDigest}}}){{/if}}"
  ],
  "prCreation": "approval",
  "packageRules": [
    {
      "enabled": false,
      "matchPackageNames": [
        "*"
      ]
    },
    {
      "enabled": true,
      "labels": [
        "renovate",
        "Components::Emulators"
      ],
      "commitMessagePrefix": "chore:",
      "commitMessageAction": "bump",
      "commitMessageLowerCase": "auto",
      "matchPackageNames": [
        "//libretro//"
      ],
      "postUpgradeTasks": {
	"commands": [
	"./updater.py {{{packageFile}}}"
	],
	"fileFilters": ["**/*.mk", "RELEASE-NOTES.md"]
      }
    },
    {
      "enabled": true,
      "labels": [
        "renovate",
        "Components::System"
      ],
      "commitMessagePrefix": "chore:",
      "commitMessageAction": "bump",
      "commitMessageLowerCase": "auto",
      "matchPackageNames": [
        "//recalbox//"
      ],
      "postUpgradeTasks": {
	"commands": [
	  "./updater.py {{{packageFile}}}"
	],
	"fileFilters": ["**/*.mk", "RELEASE-NOTES.md"]
      }
    }
  ],
  "customManagers": [
    {
      "customType": "regex",
      "fileMatch": [
        "\\.mk$"
      ],
      "matchStringsStrategy": "combination",
      "matchStrings": [
        ".*_VERSION = (?<currentValue>(?:v)?[\\w+\\.\\-]*)\\n",
        ".*_VERSION = (?<currentDigest>[a-f0-9]{40}) #(?<nameBranch>.*)\\n",
        ".*_VERSION = (?<currentDigest>[a-f0-9]{40})\\n",
        ".*_SITE = (?:https?:\\/\\/)?(?:.*call )?(?<siteName>[\\w-]*)(?:\\.com)?.(?<orgName>[\\w_-]*).(?<depName>[\\w_\\/-]*)"
      ],
      "currentValueTemplate": "{{#if currentDigest }}{{#if nameBranch }}{{{nameBranch}}}{{else}}master{{/if}}{{else}}{{{currentValue}}}{{/if}}",
      "depNameTemplate": "{{{lowercase depName}}}",
      "packageNameTemplate": "https://{{{siteName}}}.com/{{{orgName}}}/{{{depName}}}",
      "datasourceTemplate": "{{#if currentDigest }}git-refs{{else}}git-tags{{/if}}"
    }
  ]
}
